<?xml version="1.0" standalone="no"?>
<!DOCTYPE svg PUBLIC "-//W3C//DTD SVG 20010904//EN"
 "http://www.w3.org/TR/2001/REC-SVG-20010904/DTD/svg10.dtd">
<svg version="1.0" xmlns="http://www.w3.org/2000/svg"
 width="1024.000000pt" height="1024.000000pt" viewBox="0 0 1024.000000 1024.000000"
 preserveAspectRatio="xMidYMid meet">
<metadata>
Created by potrace 1.11, written by Peter Selinger 2001-2013
</metadata>
<g transform="translate(0.000000,1024.000000) scale(0.100000,-0.100000)"
fill="#000000" stroke="none">
<path d="M4870 10107 c-3 -3 -58 -8 -124 -11 -65 -4 -123 -9 -130 -11 -6 -2
-40 -6 -76 -10 -36 -3 -105 -12 -155 -20 -49 -8 -108 -17 -130 -21 -135 -20
-501 -110 -660 -162 -415 -136 -789 -311 -1135 -530 -368 -234 -640 -457 -960
-787 -667 -688 -1133 -1606 -1295 -2550 -38 -216 -36 -208 -60 -440 -19 -191
-13 -816 10 -980 2 -16 9 -69 15 -117 9 -73 24 -162 55 -333 51 -270 175 -670
302 -968 63 -148 203 -423 288 -567 94 -158 275 -427 349 -517 8 -10 36 -45
62 -78 26 -33 77 -94 113 -135 450 -515 953 -906 1556 -1208 171 -85 171 -86
370 -167 317 -129 693 -235 1030 -290 55 -9 111 -18 125 -20 21 -4 109 -14
260 -30 219 -23 699 -23 900 0 19 2 64 7 100 10 175 16 452 66 671 120 408
103 800 255 1154 448 217 119 230 127 385 230 1028 681 1760 1695 2078 2877
57 211 119 536 137 720 3 36 8 79 10 95 23 189 24 817 1 941 -2 11 -7 51 -10
89 -4 39 -14 113 -22 165 -8 52 -17 111 -20 130 -3 19 -16 89 -30 155 -189
927 -663 1810 -1336 2487 -164 165 -216 214 -348 324 -382 320 -810 580 -1280
779 -226 95 -650 230 -850 269 -179 35 -300 56 -370 66 -47 6 -98 12 -115 15
-16 2 -64 7 -105 10 -41 4 -86 9 -100 12 -32 6 -654 15 -660 10z"/>
</g>
</svg>
